Splitter1            INFO in initialize()
Splitter2            INFO in initialize()
Splitter3            INFO in initialize()
Triggered            INFO in initialize()
DecisionSvc          INFO Inserting stream: Stream2 with no Algs
Stream2.Stream2...   INFO Initializing Stream2.Stream2Tool
Stream2              INFO Data output: AthenaPoolMultiTest_Split2.root
Stream2              INFO ../O reinitialization...
DecisionSvc          INFO Inserting stream: Stream1 with no Algs
Stream1.Stream1...   INFO Initializing Stream1.Stream1Tool
Stream1              INFO Data output: AthenaPoolMultiTest_Split1.root
Stream1              INFO ../O reinitialization...
DecisionSvc          INFO Inserting stream: Stream3 with no Algs
Stream3.Stream3...   INFO Initializing Stream3.Stream3Tool
Stream3              INFO Data output: AthenaPoolMultiTest_Split3.root
Stream3              INFO ../O reinitialization...
DecisionSvc          INFO Inserting stream: Others with no Algs
Others.OthersTool    INFO Initializing Others.OthersTool
Others               INFO Data output: AthenaPoolMultiTest_Missed.root
Others               INFO ../O reinitialization...
DecisionSvc          INFO Inserting stream: Bad with no Algs
Bad.BadTool          INFO Initializing Bad.BadTool
Bad                  INFO Data output: AthenaPoolMultiTest_Bad.root
Bad                  INFO ../O reinitialization...
Splitter1           DEBUG in execute()
Splitter1            INFO EventInfo event: 1 run: 0
Splitter1           DEBUG Trigmask = 2
Splitter1            INFO L1 failed
Splitter2            INFO EventInfo event: 1 run: 0
Splitter2            INFO L1 passed
Splitter3           DEBUG in execute()
Splitter3            INFO EventInfo event: 1 run: 0
Splitter3           DEBUG Trigmask = 2
Splitter3            INFO L1 failed
Triggered            INFO EventInfo event: 1 run: 0
Triggered            INFO L1 passed
Splitter1           DEBUG in execute()
Splitter1            INFO EventInfo event: 2 run: 0
Splitter1           DEBUG Trigmask = 4
Splitter1            INFO L1 failed
Splitter2            INFO EventInfo event: 2 run: 0
Splitter2            INFO L1 failed
Splitter3           DEBUG in execute()
Splitter3            INFO EventInfo event: 2 run: 0
Splitter3           DEBUG Trigmask = 4
Splitter3            INFO L1 passed
Triggered            INFO EventInfo event: 2 run: 0
Triggered            INFO L1 passed
Splitter1           DEBUG in execute()
Splitter1            INFO EventInfo event: 3 run: 0
Splitter1           DEBUG Trigmask = 256
Splitter1            INFO L1 failed
Splitter2            INFO EventInfo event: 3 run: 0
Splitter2            INFO L1 failed
Splitter3           DEBUG in execute()
Splitter3            INFO EventInfo event: 3 run: 0
Splitter3           DEBUG Trigmask = 256
Splitter3            INFO L1 failed
Triggered            INFO EventInfo event: 3 run: 0
Triggered            INFO L1 passed
Splitter1           DEBUG in execute()
Splitter1            INFO EventInfo event: 4 run: 0
Splitter1           DEBUG Trigmask = 18
Splitter1            INFO L1 failed
Splitter2            INFO EventInfo event: 4 run: 0
Splitter2            INFO L1 passed
Splitter3           DEBUG in execute()
Splitter3            INFO EventInfo event: 4 run: 0
Splitter3           DEBUG Trigmask = 18
Splitter3            INFO L1 failed
Triggered            INFO EventInfo event: 4 run: 0
Triggered            INFO L1 passed
Splitter1           DEBUG in execute()
Splitter1            INFO EventInfo event: 5 run: 0
Splitter1           DEBUG Trigmask = 36
Splitter1            INFO L1 failed
Splitter2            INFO EventInfo event: 5 run: 0
Splitter2            INFO L1 failed
Splitter3           DEBUG in execute()
Splitter3            INFO EventInfo event: 5 run: 0
Splitter3           DEBUG Trigmask = 36
Splitter3            INFO L1 passed
Triggered            INFO EventInfo event: 5 run: 0
Triggered            INFO L1 passed
Splitter1           DEBUG in execute()
Splitter1            INFO EventInfo event: 6 run: 0
Splitter1           DEBUG Trigmask = 65
Splitter1            INFO L1 passed
Splitter2            INFO EventInfo event: 6 run: 0
Splitter2            INFO L1 failed
Splitter3           DEBUG in execute()
Splitter3            INFO EventInfo event: 6 run: 0
Splitter3           DEBUG Trigmask = 65
Splitter3            INFO L1 failed
Triggered            INFO EventInfo event: 6 run: 0
Triggered            INFO L1 passed
Splitter1           DEBUG in execute()
Splitter1            INFO EventInfo event: 7 run: 0
Splitter1           DEBUG Trigmask = 130
Splitter1            INFO L1 failed
Splitter2            INFO EventInfo event: 7 run: 0
Splitter2            INFO L1 passed
Splitter3           DEBUG in execute()
Splitter3            INFO EventInfo event: 7 run: 0
Splitter3           DEBUG Trigmask = 130
Splitter3            INFO L1 failed
Triggered            INFO EventInfo event: 7 run: 0
Triggered            INFO L1 passed
Splitter1           DEBUG in execute()
Splitter1            INFO EventInfo event: 8 run: 0
Splitter1           DEBUG Trigmask = 260
Splitter1            INFO L1 failed
Splitter2            INFO EventInfo event: 8 run: 0
Splitter2            INFO L1 failed
Splitter3           DEBUG in execute()
Splitter3            INFO EventInfo event: 8 run: 0
Splitter3           DEBUG Trigmask = 260
Splitter3            INFO L1 passed
Triggered            INFO EventInfo event: 8 run: 0
Triggered            INFO L1 passed
Splitter1           DEBUG in execute()
Splitter1            INFO EventInfo event: 9 run: 0
Splitter1           DEBUG Trigmask = 513
Splitter1            INFO L1 passed
Splitter2            INFO EventInfo event: 9 run: 0
Splitter2            INFO L1 failed
Splitter3           DEBUG in execute()
Splitter3            INFO EventInfo event: 9 run: 0
Splitter3           DEBUG Trigmask = 513
Splitter3            INFO L1 failed
Triggered            INFO EventInfo event: 9 run: 0
Triggered            INFO L1 passed
Splitter1           DEBUG in execute()
Splitter1            INFO EventInfo event: 10 run: 0
Splitter1           DEBUG Trigmask = 1026
Splitter1            INFO L1 failed
Splitter2            INFO EventInfo event: 10 run: 0
Splitter2            INFO L1 passed
Splitter3           DEBUG in execute()
Splitter3            INFO EventInfo event: 10 run: 0
Splitter3           DEBUG Trigmask = 1026
Splitter3            INFO L1 failed
Triggered            INFO EventInfo event: 10 run: 0
Triggered            INFO L1 passed
Splitter1           DEBUG in execute()
Splitter1            INFO EventInfo event: 11 run: 0
Splitter1           DEBUG Trigmask = 2052
Splitter1            INFO L1 failed
Splitter2            INFO EventInfo event: 11 run: 0
Splitter2            INFO L1 failed
Splitter3           DEBUG in execute()
Splitter3            INFO EventInfo event: 11 run: 0
Splitter3           DEBUG Trigmask = 2052
Splitter3            INFO L1 passed
Triggered            INFO EventInfo event: 11 run: 0
Triggered            INFO L1 passed
Splitter1           DEBUG in execute()
Splitter1            INFO EventInfo event: 12 run: 0
Splitter1           DEBUG Trigmask = 4097
Splitter1            INFO L1 passed
Splitter2            INFO EventInfo event: 12 run: 0
Splitter2            INFO L1 failed
Splitter3           DEBUG in execute()
Splitter3            INFO EventInfo event: 12 run: 0
Splitter3           DEBUG Trigmask = 4097
Splitter3            INFO L1 failed
Triggered            INFO EventInfo event: 12 run: 0
Triggered            INFO L1 passed
Splitter1           DEBUG in execute()
Splitter1            INFO EventInfo event: 13 run: 0
Splitter1           DEBUG Trigmask = 8194
Splitter1            INFO L1 failed
Splitter2            INFO EventInfo event: 13 run: 0
Splitter2            INFO L1 passed
Splitter3           DEBUG in execute()
Splitter3            INFO EventInfo event: 13 run: 0
Splitter3           DEBUG Trigmask = 8194
Splitter3            INFO L1 failed
Triggered            INFO EventInfo event: 13 run: 0
Triggered            INFO L1 passed
Splitter1           DEBUG in execute()
Splitter1            INFO EventInfo event: 14 run: 0
Splitter1           DEBUG Trigmask = 16388
Splitter1            INFO L1 failed
Splitter2            INFO EventInfo event: 14 run: 0
Splitter2            INFO L1 failed
Splitter3           DEBUG in execute()
Splitter3            INFO EventInfo event: 14 run: 0
Splitter3           DEBUG Trigmask = 16388
Splitter3            INFO L1 passed
Triggered            INFO EventInfo event: 14 run: 0
Triggered            INFO L1 passed
Splitter1           DEBUG in execute()
Splitter1            INFO EventInfo event: 15 run: 0
Splitter1           DEBUG Trigmask = 32769
Splitter1            INFO L1 passed
Splitter2            INFO EventInfo event: 15 run: 0
Splitter2            INFO L1 failed
Splitter3           DEBUG in execute()
Splitter3            INFO EventInfo event: 15 run: 0
Splitter3           DEBUG Trigmask = 32769
Splitter3            INFO L1 failed
Triggered            INFO EventInfo event: 15 run: 0
Triggered            INFO L1 passed
Splitter1           DEBUG in execute()
Splitter1            INFO EventInfo event: 16 run: 0
Splitter1           DEBUG Trigmask = 3
Splitter1            INFO L1 passed
Splitter2            INFO EventInfo event: 16 run: 0
Splitter2            INFO L1 passed
Splitter3           DEBUG in execute()
Splitter3            INFO EventInfo event: 16 run: 0
Splitter3           DEBUG Trigmask = 3
Splitter3            INFO L1 failed
Triggered            INFO EventInfo event: 16 run: 0
Triggered            INFO L1 passed
Splitter1           DEBUG in execute()
Splitter1            INFO EventInfo event: 17 run: 0
Splitter1           DEBUG Trigmask = 6
Splitter1            INFO L1 failed
Splitter2            INFO EventInfo event: 17 run: 0
Splitter2            INFO L1 passed
Splitter3           DEBUG in execute()
Splitter3            INFO EventInfo event: 17 run: 0
Splitter3           DEBUG Trigmask = 6
Splitter3            INFO L1 passed
Triggered            INFO EventInfo event: 17 run: 0
Triggered            INFO L1 passed
Splitter1           DEBUG in execute()
Splitter1            INFO EventInfo event: 18 run: 0
Splitter1           DEBUG Trigmask = 5
Splitter1            INFO L1 passed
Splitter2            INFO EventInfo event: 18 run: 0
Splitter2            INFO L1 failed
Splitter3           DEBUG in execute()
Splitter3            INFO EventInfo event: 18 run: 0
Splitter3           DEBUG Trigmask = 5
Splitter3            INFO L1 passed
Triggered            INFO EventInfo event: 18 run: 0
Triggered            INFO L1 passed
Splitter1           DEBUG in execute()
Splitter1            INFO EventInfo event: 19 run: 0
Splitter1           DEBUG Trigmask = 10
Splitter1            INFO L1 failed
Splitter2            INFO EventInfo event: 19 run: 0
Splitter2            INFO L1 passed
Splitter3           DEBUG in execute()
Splitter3            INFO EventInfo event: 19 run: 0
Splitter3           DEBUG Trigmask = 10
Splitter3            INFO L1 failed
Triggered            INFO EventInfo event: 19 run: 0
Triggered            INFO L1 passed
Splitter1           DEBUG in execute()
Splitter1            INFO EventInfo event: 20 run: 0
Splitter1           DEBUG Trigmask = 20
Splitter1            INFO L1 failed
Splitter2            INFO EventInfo event: 20 run: 0
Splitter2            INFO L1 failed
Splitter3           DEBUG in execute()
Splitter3            INFO EventInfo event: 20 run: 0
Splitter3           DEBUG Trigmask = 20
Splitter3            INFO L1 passed
Triggered            INFO EventInfo event: 20 run: 0
Triggered            INFO L1 passed
StorageSvc           INFO EventStreamInfo_p3 [11DF1B8C-0DEE-4687-80D7-E74B520ACBB4]
Stream2              INFO Metadata records written: 8
Stream1              INFO Metadata records written: 7
Stream3              INFO Metadata records written: 7
Others               INFO Metadata records written: 2
Bad                  INFO Metadata records written: 1
Splitter1            INFO in finalize()
Splitter2            INFO in finalize()
Splitter3            INFO in finalize()
Triggered            INFO in finalize()
ItemListSvc         DEBUG STREAM Bad has (5) items
ItemListSvc         DEBUG    - EventStreamInfo_Bad
ItemListSvc         DEBUG    - xAOD::EventFormat_EventFormatBad
ItemListSvc         DEBUG  --> Overlap with Others (3) items
ItemListSvc         DEBUG  --> Overlap with Stream1 (3) items
ItemListSvc         DEBUG  --> Overlap with Stream2 (3) items
ItemListSvc         DEBUG  --> Overlap with Stream3 (3) items
ItemListSvc         DEBUG STREAM Others has (10) items
ItemListSvc         DEBUG    - EventStreamInfo_Others
ItemListSvc         DEBUG    - xAOD::EventFormat_EventFormatOthers
ItemListSvc         DEBUG  --> Overlap with Bad (3) items
ItemListSvc         DEBUG  --> Overlap with Stream1 (8) items
ItemListSvc         DEBUG  --> Overlap with Stream2 (8) items
ItemListSvc         DEBUG  --> Overlap with Stream3 (8) items
ItemListSvc         DEBUG STREAM Stream1 has (11) items
ItemListSvc         DEBUG    - EventStreamInfo_Stream1
ItemListSvc         DEBUG    - xAOD::EventFormat_EventFormatStream1
ItemListSvc         DEBUG  --> Overlap with Bad (3) items
ItemListSvc         DEBUG  --> Overlap with Others (8) items
ItemListSvc         DEBUG  --> Overlap with Stream2 (9) items
ItemListSvc         DEBUG  --> Overlap with Stream3 (9) items
ItemListSvc         DEBUG STREAM Stream2 has (11) items
ItemListSvc         DEBUG    - EventStreamInfo_Stream2
ItemListSvc         DEBUG    - xAOD::EventFormat_EventFormatStream2
ItemListSvc         DEBUG  --> Overlap with Bad (3) items
ItemListSvc         DEBUG  --> Overlap with Others (8) items
ItemListSvc         DEBUG  --> Overlap with Stream1 (9) items
ItemListSvc         DEBUG  --> Overlap with Stream3 (9) items
ItemListSvc         DEBUG STREAM Stream3 has (11) items
ItemListSvc         DEBUG    - EventStreamInfo_Stream3
ItemListSvc         DEBUG    - xAOD::EventFormat_EventFormatStream3
ItemListSvc         DEBUG  --> Overlap with Bad (3) items
ItemListSvc         DEBUG  --> Overlap with Others (8) items
ItemListSvc         DEBUG  --> Overlap with Stream1 (9) items
ItemListSvc         DEBUG  --> Overlap with Stream2 (9) items
